…
``` r
## this is the same as doing this in base R:
## raw_data <- read.csv('2021-09-24-raw-data.csv')

raw_data <- read_csv('2021-09-24-raw-data.csv')
raw_data
```

    ## # A tibble: 46 × 282
    ##    StartDate    EndDate    Status  IPAddress  Progress `Duration (in s… Finished
    ##    <chr>        <chr>      <chr>   <chr>      <chr>    <chr>            <chr>   
    ##  1 "Start Date" "End Date" "Respo… "IP Addre… "Progre… "Duration (in s… "Finish…
    ##  2 "{\"ImportI… "{\"Impor… "{\"Im… "{\"Impor… "{\"Imp… "{\"ImportId\":… "{\"Imp…
    ##  3 "10/9/20 10… "10/9/20 … "IP Ad…  <NA>      "100"    "2196"           "TRUE"  
    ##  4 "10/9/20 10… "10/9/20 … "IP Ad…  <NA>      "100"    "2655"           "TRUE"  
    ##  5 "10/9/20 10… "10/9/20 … "IP Ad…  <NA>      "100"    "1515"           "TRUE"  
    ##  6 "10/9/20 10… "10/9/20 … "IP Ad…  <NA>      "100"    "2699"           "TRUE"  
    ##  7 "10/9/20 10… "10/9/20 … "IP Ad…  <NA>      "100"    "1727"           "TRUE"  
    ##  8 "10/9/20 10… "10/9/20 … "IP Ad…  <NA>      "100"    "2614"           "TRUE"  
    ##  9 "10/9/20 10… "10/9/20 … "IP Ad…  <NA>      "100"    "2010"           "TRUE"  
    ## 10 "10/9/20 10… "10/9/20 … "IP Ad…  <NA>      "100"    "2365"           "TRUE"  
    ## # … with 36 more rows, and 275 more variables: RecordedDate <chr>,
    ## #   ResponseId <chr>, RecipientLastName <chr>, RecipientFirstName <chr>,
    ## #   RecipientEmail <chr>, ExternalReference <chr>, LocationLatitude <chr>,
    ## #   LocationLongitude <chr>, DistributionChannel <chr>, UserLanguage <chr>,
    ## #   Q119 <chr>, CheckQ1 <chr>, CheckQ1Again <chr>, CheckQ2 <chr>,
    ## #   CheckQ2Again <chr>, CheckQ3 <chr>, CheckQ3Again <chr>, Catch <chr>,
    ## #   1_LorRB1 <chr>, 1_VividB1_1 <chr>, 1_QuestionB1_1 <chr>, …
…
The first thing we should do is get rid of those first two junk rows in
our data. Although we can do this with subscripting in base `R` as shown
in the comment, the `tidyverse` way to do this is with the `slice`
function:

``` r
## this is the same as doing this in base R:
## raw_data <- raw_data[-c(1, 2), ]

raw_data <- raw_data %>% slice(-1, -2)
raw_data
```

    ## # A tibble: 44 × 282
    ##    StartDate     EndDate   Status  IPAddress Progress `Duration (in se… Finished
    ##    <chr>         <chr>     <chr>   <chr>     <chr>    <chr>             <chr>   
    ##  1 10/9/20 10:27 10/9/20 … IP Add… <NA>      100      2196              TRUE    
    ##  2 10/9/20 10:26 10/9/20 … IP Add… <NA>      100      2655              TRUE    
    ##  3 10/9/20 10:46 10/9/20 … IP Add… <NA>      100      1515              TRUE    
    ##  4 10/9/20 10:30 10/9/20 … IP Add… <NA>      100      2699              TRUE    
    ##  5 10/9/20 10:47 10/9/20 … IP Add… <NA>      100      1727              TRUE    
    ##  6 10/9/20 10:33 10/9/20 … IP Add… <NA>      100      2614              TRUE    
    ##  7 10/9/20 10:49 10/9/20 … IP Add… <NA>      100      2010              TRUE    
    ##  8 10/9/20 10:46 10/9/20 … IP Add… <NA>      100      2365              TRUE    
    ##  9 10/9/20 10:59 10/9/20 … IP Add… <NA>      100      1637              TRUE    
    ## 10 10/9/20 11:00 10/9/20 … IP Add… <NA>      100      1847              TRUE    
    ## # … with 34 more rows, and 275 more variables: RecordedDate <chr>,
    ## #   ResponseId <chr>, RecipientLastName <chr>, RecipientFirstName <chr>,
    ## #   RecipientEmail <chr>, ExternalReference <chr>, LocationLatitude <chr>,
    ## #   LocationLongitude <chr>, DistributionChannel <chr>, UserLanguage <chr>,
    ## #   Q119 <chr>, CheckQ1 <chr>, CheckQ1Again <chr>, CheckQ2 <chr>,
    ## #   CheckQ2Again <chr>, CheckQ3 <chr>, CheckQ3Again <chr>, Catch <chr>,
    ## #   1_LorRB1 <chr>, 1_VividB1_1 <chr>, 1_QuestionB1_1 <chr>, …
…
``` r
## this is the same as doing this in base R:
##raw_data <- subset(raw_data,
##                   select=-c(1:5, 7:8, 10:18, LorR,
##                             PROLIFIC_PID, STUDY_ID, SESSION_ID))

raw_data <- raw_data %>%
    select(-c(1:5, 7:8, 10:18),-LorR, -PROLIFIC_PID, -STUDY_ID, -SESSION_ID)
raw_data
```

    ## # A tibble: 44 × 262
    ##    `Duration (in s… ResponseId CheckQ1 CheckQ1Again CheckQ2 CheckQ2Again CheckQ3
    ##    <chr>            <chr>      <chr>   <chr>        <chr>   <chr>        <chr>  
    ##  1 2196             R_1QcKka5… Think … <NA>         Think … <NA>         Think …
    ##  2 2655             R_1K3lQMR… Think … <NA>         Think … <NA>         Think …
    ##  3 1515             R_3lxA7oc… Think … <NA>         Think … <NA>         Think …
    ##  4 2699             R_vc9p5Yz… Think … <NA>         Think … <NA>         Think …
    ##  5 1727             R_e2QJ1rg… Think … <NA>         Think … <NA>         Think …
    ##  6 2614             R_21gO8x8… Think … <NA>         Think … <NA>         Think …
    ##  7 2010             R_Z5119oa… Think … <NA>         Think … <NA>         Think …
    ##  8 2365             R_SAxC9m2… Think … <NA>         Think … <NA>         Think …
    ##  9 1637             R_31EiTJU… Think … <NA>         Think … <NA>         Think …
    ## 10 1847             R_1fZ7rZp… Think … <NA>         Think … <NA>         Think …
    ## # … with 34 more rows, and 255 more variables: CheckQ3Again <chr>, Catch <chr>,
    ## #   1_LorRB1 <chr>, 1_VividB1_1 <chr>, 1_QuestionB1_1 <chr>,
    ## #   1_ConfidenceB1_1 <chr>, 1_CheckB1 <chr>, 2_LorRB1 <chr>, 2_VividB1_1 <chr>,
    ## #   2_QuestionB1_1 <chr>, 2_ConfidenceB1_1 <chr>, 2_CheckB1 <chr>,
    ## #   3_LorRB1 <chr>, 3_VividB1_1 <chr>, 3_QuestionB1_1 <chr>,
    ## #   3_ConfidenceB1_1 <chr>, 3_CheckB1 <chr>, 4_LorRB1 <chr>, 4_VividB1_1 <chr>,
    ## #   4_QuestionB1_1 <chr>, 4_ConfidenceB1_1 <chr>, 4_CheckB1 <chr>, …
…
           condition=Condition,
           gender=Gender,
           gender_text=Gender_4_TEXT,
           race=Race,
           race_text=Race_7_TEXT,
           hispanic=`Hispanic?`,
           education=Education,
           age=Age,
           feedback=Feedback,
           display=Display,
           visual_verbal=VorV_5)
raw_data
```

    ## # A tibble: 44 × 262
    ##    duration id    CheckQ1 CheckQ1Again CheckQ2 CheckQ2Again CheckQ3 CheckQ3Again
    ##    <chr>    <chr> <chr>   <chr>        <chr>   <chr>        <chr>   <chr>       
    ##  1 2196     R_1Q… Think … <NA>         Think … <NA>         Think … <NA>        
    ##  2 2655     R_1K… Think … <NA>         Think … <NA>         Think … <NA>        
    ##  3 1515     R_3l… Think … <NA>         Think … <NA>         Think … <NA>        
    ##  4 2699     R_vc… Think … <NA>         Think … <NA>         Think … <NA>        
    ##  5 1727     R_e2… Think … <NA>         Think … <NA>         Think … <NA>        
    ##  6 2614     R_21… Think … <NA>         Think … <NA>         Think … <NA>        
    ##  7 2010     R_Z5… Think … <NA>         Think … <NA>         Think … <NA>        
    ##  8 2365     R_SA… Think … <NA>         Think … <NA>         Think … <NA>        
    ##  9 1637     R_31… Think … <NA>         Think … <NA>         Think … <NA>        
    ## 10 1847     R_1f… Think … <NA>         Think … <NA>         Think … <NA>        
    ## # … with 34 more rows, and 254 more variables: catch <chr>, 1_LorRB1 <chr>,
    ## #   1_VividB1_1 <chr>, 1_QuestionB1_1 <chr>, 1_ConfidenceB1_1 <chr>,
    ## #   1_CheckB1 <chr>, 2_LorRB1 <chr>, 2_VividB1_1 <chr>, 2_QuestionB1_1 <chr>,
    ## #   2_ConfidenceB1_1 <chr>, 2_CheckB1 <chr>, 3_LorRB1 <chr>, 3_VividB1_1 <chr>,
    ## #   3_QuestionB1_1 <chr>, 3_ConfidenceB1_1 <chr>, 3_CheckB1 <chr>,
    ## #   4_LorRB1 <chr>, 4_VividB1_1 <chr>, 4_QuestionB1_1 <chr>,
    ## #   4_ConfidenceB1_1 <chr>, 4_CheckB1 <chr>, 5_LorRB1 <chr>, …
…
``` r
## this is the same as doing this in base R:
## names(raw_data) <- gsub('_1$', '', names(raw_data))

raw_data <- raw_data %>%
    rename_with(~ str_remove(., '_1'), ends_with('_1'))
raw_data
```

    ## # A tibble: 44 × 262
    ##    duration id    CheckQ1 CheckQ1Again CheckQ2 CheckQ2Again CheckQ3 CheckQ3Again
    ##    <chr>    <chr> <chr>   <chr>        <chr>   <chr>        <chr>   <chr>       
    ##  1 2196     R_1Q… Think … <NA>         Think … <NA>         Think … <NA>        
    ##  2 2655     R_1K… Think … <NA>         Think … <NA>         Think … <NA>        
    ##  3 1515     R_3l… Think … <NA>         Think … <NA>         Think … <NA>        
    ##  4 2699     R_vc… Think … <NA>         Think … <NA>         Think … <NA>        
    ##  5 1727     R_e2… Think … <NA>         Think … <NA>         Think … <NA>        
    ##  6 2614     R_21… Think … <NA>         Think … <NA>         Think … <NA>        
    ##  7 2010     R_Z5… Think … <NA>         Think … <NA>         Think … <NA>        
    ##  8 2365     R_SA… Think … <NA>         Think … <NA>         Think … <NA>        
    ##  9 1637     R_31… Think … <NA>         Think … <NA>         Think … <NA>        
    ## 10 1847     R_1f… Think … <NA>         Think … <NA>         Think … <NA>        
    ## # … with 34 more rows, and 254 more variables: catch <chr>, 1_LorRB1 <chr>,
    ## #   1_VividB1 <chr>, 1_QuestionB1 <chr>, 1_ConfidenceB1 <chr>, 1_CheckB1 <chr>,
    ## #   2_LorRB1 <chr>, 2_VividB1 <chr>, 2_QuestionB1 <chr>, 2_ConfidenceB1 <chr>,
    ## #   2_CheckB1 <chr>, 3_LorRB1 <chr>, 3_VividB1 <chr>, 3_QuestionB1 <chr>,
    ## #   3_ConfidenceB1 <chr>, 3_CheckB1 <chr>, 4_LorRB1 <chr>, 4_VividB1 <chr>,
    ## #   4_QuestionB1 <chr>, 4_ConfidenceB1 <chr>, 4_CheckB1 <chr>, 5_LorRB1 <chr>,
    ## #   5_VividB1 <chr>, 5_QuestionB1 <chr>, 5_ConfidenceB1 <chr>, …
…
``` r
## it's not even worth trying to do this in base R...

raw_data <- raw_data %>%
    pivot_longer(`1_LorRB1`:`12_CheckB4`,
                 names_pattern='([[:digit:]]+)_(.+)B([[:digit:]]+)',
                 names_to=c('loop', 'question', 'block'))
raw_data
```

    ## # A tibble: 10,560 × 26
    ##    duration id    CheckQ1 CheckQ1Again CheckQ2 CheckQ2Again CheckQ3 CheckQ3Again
    ##    <chr>    <chr> <chr>   <chr>        <chr>   <chr>        <chr>   <chr>       
    ##  1 2196     R_1Q… Think … <NA>         Think … <NA>         Think … <NA>        
    ##  2 2196     R_1Q… Think … <NA>         Think … <NA>         Think … <NA>        
    ##  3 2196     R_1Q… Think … <NA>         Think … <NA>         Think … <NA>        
    ##  4 2196     R_1Q… Think … <NA>         Think … <NA>         Think … <NA>        
    ##  5 2196     R_1Q… Think … <NA>         Think … <NA>         Think … <NA>        
    ##  6 2196     R_1Q… Think … <NA>         Think … <NA>         Think … <NA>        
    ##  7 2196     R_1Q… Think … <NA>         Think … <NA>         Think … <NA>        
    ##  8 2196     R_1Q… Think … <NA>         Think … <NA>         Think … <NA>        
    ##  9 2196     R_1Q… Think … <NA>         Think … <NA>         Think … <NA>        
    ## 10 2196     R_1Q… Think … <NA>         Think … <NA>         Think … <NA>        
    ## # … with 10,550 more rows, and 18 more variables: catch <chr>, gender <chr>,
    ## #   gender_text <chr>, age <chr>, hispanic <chr>, race <chr>, race_text <chr>,
    ## #   education <chr>, visual_verbal <chr>, attn_check <chr>, feedback <chr>,
    ## #   condition <chr>, other <chr>, display <chr>, loop <chr>, question <chr>,
    ## #   block <chr>, value <chr>
…
``` r
## again, good luck doing this in base R

raw_data <- raw_data %>%
    pivot_wider(names_from=question, values_from=value, names_repair='unique') %>%
    rename(lr=LorR,
           rating=Question,
           vividness=Vivid,
           confidence=Confidence,
           check=Check)
raw_data
```

    ## # A tibble: 2,112 × 29
    ##    duration id    CheckQ1 CheckQ1Again CheckQ2 CheckQ2Again CheckQ3 CheckQ3Again
    ##    <chr>    <chr> <chr>   <chr>        <chr>   <chr>        <chr>   <chr>       
    ##  1 2196     R_1Q… Think … <NA>         Think … <NA>         Think … <NA>        
    ##  2 2196     R_1Q… Think … <NA>         Think … <NA>         Think … <NA>        
    ##  3 2196     R_1Q… Think … <NA>         Think … <NA>         Think … <NA>        
    ##  4 2196     R_1Q… Think … <NA>         Think … <NA>         Think … <NA>        
    ##  5 2196     R_1Q… Think … <NA>         Think … <NA>         Think … <NA>        
    ##  6 2196     R_1Q… Think … <NA>         Think … <NA>         Think … <NA>        
    ##  7 2196     R_1Q… Think … <NA>         Think … <NA>         Think … <NA>        
    ##  8 2196     R_1Q… Think … <NA>         Think … <NA>         Think … <NA>        
    ##  9 2196     R_1Q… Think … <NA>         Think … <NA>         Think … <NA>        
    ## 10 2196     R_1Q… Think … <NA>         Think … <NA>         Think … <NA>        
    ## # … with 2,102 more rows, and 21 more variables: catch <chr>, gender <chr>,
    ## #   gender_text <chr>, age <chr>, hispanic <chr>, race <chr>, race_text <chr>,
    ## #   education <chr>, visual_verbal <chr>, attn_check <chr>, feedback <chr>,
    ## #   condition <chr>, other <chr>, display <chr>, loop <chr>, block <chr>,
    ## #   lr <chr>, vividness <chr>, rating <chr>, confidence <chr>, check <chr>
…
raw_data <- raw_data %>%
    mutate(loop=as.numeric(loop),
           block=as.numeric(block),
           display=ifelse(block < 3, 'up', 'down'),
           condition=word(condition, 2),
           lr_other=ifelse(outcome=='Miss', lr, ifelse(lr=='right', 'left', 'right')))
raw_data
```

    ## # A tibble: 2,112 × 32
    ##    duration id    CheckQ1 CheckQ1Again CheckQ2 CheckQ2Again CheckQ3 CheckQ3Again
    ##    <chr>    <chr> <chr>   <chr>        <chr>   <chr>        <chr>   <chr>       
    ##  1 2196     R_1Q… Think … <NA>         Think … <NA>         Think … <NA>        
    ##  2 2196     R_1Q… Think … <NA>         Think … <NA>         Think … <NA>        
    ##  3 2196     R_1Q… Think … <NA>         Think … <NA>         Think … <NA>        
    ##  4 2196     R_1Q… Think … <NA>         Think … <NA>         Think … <NA>        
    ##  5 2196     R_1Q… Think … <NA>         Think … <NA>         Think … <NA>        
    ##  6 2196     R_1Q… Think … <NA>         Think … <NA>         Think … <NA>        
    ##  7 2196     R_1Q… Think … <NA>         Think … <NA>         Think … <NA>        
    ##  8 2196     R_1Q… Think … <NA>         Think … <NA>         Think … <NA>        
    ##  9 2196     R_1Q… Think … <NA>         Think … <NA>         Think … <NA>        
    ## 10 2196     R_1Q… Think … <NA>         Think … <NA>         Think … <NA>        
    ## # … with 2,102 more rows, and 24 more variables: catch <chr>, gender <chr>,
    ## #   gender_text <chr>, age <chr>, hispanic <chr>, race <chr>, race_text <chr>,
    ## #   education <chr>, visual_verbal <chr>, attn_check <chr>, feedback <chr>,
    ## #   condition <chr>, other <chr>, display <chr>, loop <dbl>, block <dbl>,
    ## #   lr <chr>, vividness <chr>, rating <chr>, confidence <chr>, check <chr>,
    ## #   outcome <chr>, cue <chr>, lr_other <chr>
…
raw_data <- raw_data %>%
    relocate(id, condition, other, block, display, loop, outcome, cue,
             lr, vividness, rating, confidence, check, lr_other,
             duration, gender, gender_text, age, race, race_text,
             hispanic, education, visual_verbal, feedback, CheckQ1, CheckQ1Again,
             CheckQ2, CheckQ2Again, CheckQ3, CheckQ3Again, catch, attn_check)
raw_data
```

    ## # A tibble: 2,112 × 32
    ##    id        condition other  block display  loop outcome cue    lr    vividness
    ##    <chr>     <chr>     <chr>  <dbl> <chr>   <dbl> <chr>   <chr>  <chr> <chr>    
    ##  1 R_1QcKka… goalie    the b…     1 up          1 Score   Remem… right 80.139   
    ##  2 R_1QcKka… goalie    the b…     1 up          2 Score   What … right 73.52    
    ##  3 R_1QcKka… goalie    the b…     1 up          3 Score   Cause  right 96.055   
    ##  4 R_1QcKka… goalie    the b…     1 up          4 Miss    Remem… right 96.617   
    ##  5 R_1QcKka… goalie    the b…     1 up          5 Miss    What … left  94.505   
    ##  6 R_1QcKka… goalie    the b…     1 up          6 Miss    Cause  left  86.336   
    ##  7 R_1QcKka… goalie    the b…     1 up          7 Score   Remem… right 98.872   
    ##  8 R_1QcKka… goalie    the b…     1 up          8 Score   What … right 91.97    
    ##  9 R_1QcKka… goalie    the b…     1 up          9 Score   Cause  right 73.802   
    ## 10 R_1QcKka… goalie    the b…     1 up         10 Miss    Remem… left  99.716   
    ## # … with 2,102 more rows, and 22 more variables: rating <chr>,
    ## #   confidence <chr>, check <chr>, lr_other <chr>, duration <chr>,
    ## #   gender <chr>, gender_text <chr>, age <chr>, race <chr>, race_text <chr>,
    ## #   hispanic <chr>, education <chr>, visual_verbal <chr>, feedback <chr>,
    ## #   CheckQ1 <chr>, CheckQ1Again <chr>, CheckQ2 <chr>, CheckQ2Again <chr>,
    ## #   CheckQ3 <chr>, CheckQ3Again <chr>, catch <chr>, attn_check <chr>
…
Like all things, `tidyverse` makes filtering out data easy with the
`filter` function. Besides your data frame, this function takes one or
more arguments, which are conditions that your data needs to meet in
order to pass through the filter. For instance, `raw_data` contains a
column `catch`, which corresponds to a question intended to catch bots
(this question involves simply reading text from an image). Let’s get
only the data that passes this (and other) checks:

``` r
raw_data <- raw_data %>%
    filter(catch == 'IM_74Ef0wh1bD6qdZb' & attn_check == 'Yes')
raw_data
```

    ## # A tibble: 1,776 × 32
    ##    id        condition other  block display  loop outcome cue    lr    vividness
    ##    <chr>     <chr>     <chr>  <dbl> <chr>   <dbl> <chr>   <chr>  <chr> <chr>    
    ##  1 R_1QcKka… goalie    the b…     1 up          1 Score   Remem… right 80.139   
    ##  2 R_1QcKka… goalie    the b…     1 up          2 Score   What … right 73.52    
    ##  3 R_1QcKka… goalie    the b…     1 up          3 Score   Cause  right 96.055   
    ##  4 R_1QcKka… goalie    the b…     1 up          4 Miss    Remem… right 96.617   
    ##  5 R_1QcKka… goalie    the b…     1 up          5 Miss    What … left  94.505   
    ##  6 R_1QcKka… goalie    the b…     1 up          6 Miss    Cause  left  86.336   
    ##  7 R_1QcKka… goalie    the b…     1 up          7 Score   Remem… right 98.872   
    ##  8 R_1QcKka… goalie    the b…     1 up          8 Score   What … right 91.97    
    ##  9 R_1QcKka… goalie    the b…     1 up          9 Score   Cause  right 73.802   
    ## 10 R_1QcKka… goalie    the b…     1 up         10 Miss    Remem… left  99.716   
    ## # … with 1,766 more rows, and 22 more variables: rating <chr>,
    ## #   confidence <chr>, check <chr>, lr_other <chr>, duration <chr>,
    ## #   gender <chr>, gender_text <chr>, age <chr>, race <chr>, race_text <chr>,
    ## #   hispanic <chr>, education <chr>, visual_verbal <chr>, feedback <chr>,
    ## #   CheckQ1 <chr>, CheckQ1Again <chr>, CheckQ2 <chr>, CheckQ2Again <chr>,
    ## #   CheckQ3 <chr>, CheckQ3Again <chr>, catch <chr>, attn_check <chr>
…
