…
Let’s take a peek at this data and see what we’ve made:

``` r
df
```

    ## # A tibble: 1,250 x 9
    ##    participant trial condition saturation color text     RT response correct
    ##    <fct>       <int> <chr>          <dbl> <chr> <chr> <dbl> <chr>      <int>
    ##  1 1               1 different      18.0  blue  green  3.60 green          0
    ##  2 1               1 same           93.8  green green  2.99 green          0
    ##  3 1               2 different       9.01 green red    2.66 green          1
    ##  4 1               2 same           79.4  blue  blue   2.13 blue           1
    ##  5 1               3 different      43.7  red   green  3.19 green          0
    ##  6 1               3 same           99.3  blue  blue   2.33 blue           1
    ##  7 1               4 different      28.8  blue  red    2.37 red            0
    ##  8 1               4 same           32.8  blue  blue   2.59 blue           1
    ##  9 1               5 different      95.8  red   blue   2.47 red            1
    ## 10 1               5 same           10.4  green green  2.36 green          1
    ## # … with 1,240 more rows
…
