…
``` r
## simulate some "real" data
y <- ddm(10000, 1000, drift=DRIFT, threshold=THRESHOLD) %>% 
    select(sim:response)
y
```

    ## # A tibble: 10,000 × 4
    ## # Groups:   sim [10,000]
    ##      sim data                  rt response
    ##    <int> <list>             <dbl>    <dbl>
    ##  1     1 <tibble [99 × 2]>     99       -1
    ##  2     2 <tibble [238 × 2]>   238       -1
    ##  3     3 <tibble [71 × 2]>     71        1
    ##  4     4 <tibble [171 × 2]>   171        1
    ##  5     5 <tibble [633 × 2]>   633        1
    ##  6     6 <tibble [61 × 2]>     61        1
    ##  7     7 <tibble [140 × 2]>   140        1
    ##  8     8 <tibble [422 × 2]>   422       -1
    ##  9     9 <tibble [170 × 2]>   170        1
    ## 10    10 <tibble [130 × 2]>   130        1
    ## # … with 9,990 more rows
…
``` r
## create a histogram of x, including a probability column
histogram <- function(x, samples=1000, binwidth=25) {
    x <- x[x >= -samples & x <= samples]
    h <- hist(x, breaks=seq(-samples, samples, by=binwidth), plot=FALSE)
    tibble(lower=h$breaks[-length(h$breaks)], upper=h$breaks[-1],
           mid=h$mids, count=h$counts, p=h$counts/length(x))
}

histogram(y_hat$response * y_hat$rt)
```

    ## # A tibble: 80 × 5
    ##    lower upper   mid count     p
    ##    <dbl> <dbl> <dbl> <int> <dbl>
    ##  1 -1000  -975 -988.     0     0
    ##  2  -975  -950 -962.     0     0
    ##  3  -950  -925 -938.     0     0
    ##  4  -925  -900 -912.     0     0
    ##  5  -900  -875 -888.     0     0
    ##  6  -875  -850 -862.     0     0
    ##  7  -850  -825 -838.     0     0
    ##  8  -825  -800 -812.     0     0
    ##  9  -800  -775 -788.     0     0
    ## 10  -775  -750 -762.     0     0
    ## # … with 70 more rows
…
