…
``` r
d <- expand_grid(simulation=1:100, participant=1:10) %>%
    mutate(moral_judgment=rnorm(n=n(), mean=-.2, sd=.3))
d
```

    ## # A tibble: 1,000 × 3
    ##    simulation participant moral_judgment
    ##         <int>       <int>          <dbl>
    ##  1          1           1       -0.458  
    ##  2          1           2       -0.650  
    ##  3          1           3       -0.478  
    ##  4          1           4        0.356  
    ##  5          1           5        0.203  
    ##  6          1           6       -0.0851 
    ##  7          1           7       -0.103  
    ##  8          1           8       -0.247  
    ##  9          1           9       -0.0446 
    ## 10          1          10        0.00239
    ## # … with 990 more rows

You can see that we have `100` simulations of our `10`-participant
dataset all wrapped up in the same dataframe. We can make it tidier
using the function `nest`, which wraps up the dataset for each
simulation:

``` r
d <- d %>% group_by(simulation) %>% nest()
d
```

    ## # A tibble: 100 × 2
    ## # Groups:   simulation [100]
    ##    simulation data             
    ##         <int> <list>           
    ##  1          1 <tibble [10 × 2]>
    ##  2          2 <tibble [10 × 2]>
    ##  3          3 <tibble [10 × 2]>
    ##  4          4 <tibble [10 × 2]>
    ##  5          5 <tibble [10 × 2]>
    ##  6          6 <tibble [10 × 2]>
    ##  7          7 <tibble [10 × 2]>
    ##  8          8 <tibble [10 × 2]>
    ##  9          9 <tibble [10 × 2]>
    ## 10         10 <tibble [10 × 2]>
    ## # … with 90 more rows
…
Cool- so now we have 100 datasets. As before, we want to calculate a
t-test for each possible dataset. To do that, we need to make use of the
`map` function:

``` r
d <- d %>% mutate(t.test=map(data, ~ t.test(.$moral_judgment)))
d
```

    ## # A tibble: 100 × 3
    ## # Groups:   simulation [100]
    ##    simulation data              t.test 
    ##         <int> <list>            <list> 
    ##  1          1 <tibble [10 × 2]> <htest>
    ##  2          2 <tibble [10 × 2]> <htest>
    ##  3          3 <tibble [10 × 2]> <htest>
    ##  4          4 <tibble [10 × 2]> <htest>
    ##  5          5 <tibble [10 × 2]> <htest>
    ##  6          6 <tibble [10 × 2]> <htest>
    ##  7          7 <tibble [10 × 2]> <htest>
    ##  8          8 <tibble [10 × 2]> <htest>
    ##  9          9 <tibble [10 × 2]> <htest>
    ## 10         10 <tibble [10 × 2]> <htest>
    ## # … with 90 more rows
…
``` r
d <- d %>% mutate(p.value=map_dbl(t.test, ~ .$p.value),
                  significant=p.value < .05)
d
```

    ## # A tibble: 100 × 5
    ## # Groups:   simulation [100]
    ##    simulation data              t.test  p.value significant
    ##         <int> <list>            <list>    <dbl> <lgl>      
    ##  1          1 <tibble [10 × 2]> <htest> 0.163   FALSE      
    ##  2          2 <tibble [10 × 2]> <htest> 0.0376  TRUE       
    ##  3          3 <tibble [10 × 2]> <htest> 0.417   FALSE      
    ##  4          4 <tibble [10 × 2]> <htest> 0.210   FALSE      
    ##  5          5 <tibble [10 × 2]> <htest> 0.0102  TRUE       
    ##  6          6 <tibble [10 × 2]> <htest> 0.0405  TRUE       
    ##  7          7 <tibble [10 × 2]> <htest> 0.0379  TRUE       
    ##  8          8 <tibble [10 × 2]> <htest> 0.0562  FALSE      
    ##  9          9 <tibble [10 × 2]> <htest> 0.00281 TRUE       
    ## 10         10 <tibble [10 × 2]> <htest> 0.00431 TRUE       
    ## # … with 90 more rows
…
``` r
d.t2 <- expand_grid(N=2:40, simulation=1:100) %>%
    group_by(N, simulation) %>%
    mutate(data=list(tibble(participant=1:N, moral_judgment=rnorm(n=N, mean=-.2, sd=.3))),
           t.test=map(data, ~ t.test(.$moral_judgment)),
           p.value=map_dbl(t.test, ~ .$p.value),
           significant=p.value < .05)
d.t2
```

    ## # A tibble: 3,900 × 6
    ## # Groups:   N, simulation [3,900]
    ##        N simulation data             t.test  p.value significant
    ##    <int>      <int> <list>           <list>    <dbl> <lgl>      
    ##  1     2          1 <tibble [2 × 2]> <htest>  0.113  FALSE      
    ##  2     2          2 <tibble [2 × 2]> <htest>  0.656  FALSE      
    ##  3     2          3 <tibble [2 × 2]> <htest>  0.879  FALSE      
    ##  4     2          4 <tibble [2 × 2]> <htest>  0.150  FALSE      
    ##  5     2          5 <tibble [2 × 2]> <htest>  0.333  FALSE      
    ##  6     2          6 <tibble [2 × 2]> <htest>  0.468  FALSE      
    ##  7     2          7 <tibble [2 × 2]> <htest>  0.0928 FALSE      
    ##  8     2          8 <tibble [2 × 2]> <htest>  0.654  FALSE      
    ##  9     2          9 <tibble [2 × 2]> <htest>  0.228  FALSE      
    ## 10     2         10 <tibble [2 × 2]> <htest>  0.451  FALSE      
    ## # … with 3,890 more rows
…
