…
``` r
## simulate a dataset assuming equal ALPHA per participant
N_participants <- 5      ## number of participants to simulate
N_trials <- 500          ## number of data points per participant to simulate
ALPHA <- 0               ## mean of simulated data
SIGMA <- 0.2             ## SD of simulated data

d1 <- expand_grid(participant=as.factor(1:N_participants),
                  trial=as.factor(1:N_trials)) %>%
    mutate(y=rnorm(n(), ALPHA, SIGMA))
d1
```

    ## # A tibble: 2,500 × 3
    ##    participant trial       y
    ##    <fct>       <fct>   <dbl>
    ##  1 1           1     -0.173
    ##  2 1           2     -0.288
    ##  3 1           3     -0.105
    ##  4 1           4     -0.301
    ##  5 1           5     -0.0475
    ##  6 1           6     -0.0817
    ##  7 1           7     -0.0798
    ##  8 1           8      0.275
    ##  9 1           9      0.190
    ## 10 1           10     0.224
    ## # ℹ 2,490 more rows
…
``` r
ALPHA_participant2 <- seq(-1, 1, length.out=N_participants)

d2 <- expand_grid(participant=as.factor(1:N_participants),
                  trial=as.factor(1:N_trials)) %>%
    mutate(y=rnorm(n(), ALPHA_participant2[participant], SIGMA))
d2
```

    ## # A tibble: 2,500 × 3
    ##    participant trial      y
    ##    <fct>       <fct>  <dbl>
    ##  1 1           1     -0.928
    ##  2 1           2     -0.977
    ##  3 1           3     -1.03
    ##  4 1           4     -1.29
    ##  5 1           5     -0.844
    ##  6 1           6     -0.730
    ##  7 1           7     -1.15
    ##  8 1           8     -0.791
    ##  9 1           9     -0.998
    ## 10 1           10    -1.01
    ## # ℹ 2,490 more rows
…
``` r
SIGMA_MU <- .5    ## between-participant standard deviation

d4 <- expand_grid(participant=1:N_participants, trial=1:N_trials) %>%
    group_by(participant) %>%
    mutate(alpha=rnorm(1, ALPHA, SIGMA_MU)) %>%   ## simulate a partipant-level mean
    ungroup() %>%
    mutate(y=rnorm(n(), alpha, SIGMA))         ## simulate the ratings
d4
```

    ## # A tibble: 2,500 × 4
    ##    participant trial  alpha      y
    ##          <int> <int>  <dbl>  <dbl>
    ##  1           1     1 -0.743 -0.885
    ##  2           1     2 -0.743 -0.693
    ##  3           1     3 -0.743 -0.537
    ##  4           1     4 -0.743 -0.859
    ##  5           1     5 -0.743 -0.540
    ##  6           1     6 -0.743 -0.467
    ##  7           1     7 -0.743 -0.692
    ##  8           1     8 -0.743 -0.531
    ##  9           1     9 -0.743 -0.580
    ## 10           1    10 -0.743 -0.672
    ## # ℹ 2,490 more rows
…
